Lab14_DataBetas
…
## The following object is masked from 'package:purrr':
## 
##     compact

#Data Transformation
GenderSmoke <- cdc %>% select(smoke100, gender)
GenderSmoke$gender <- as.character(GenderSmoke$gender)
names(GenderSmoke) <- c('Smoking', 'Gender')
GenderSmoke

## # A tibble: 20,000 x 2
##    Smoking Gender
##      <dbl> <chr> 
##  1       0 m     
##  2       1 f     
##  3       1 f     
##  4       0 f     
##  5       0 f     
##  6       0 f     
##  7       0 m     
##  8       0 m     
##  9       1 f     
## 10       0 m     
## # ... with 19,990 more rows
…
